{
  "_embedded": {
    "preferences": [
      {
        "id": 917,
        "ownerId": "licensed_user_e",
        "name": "default2",
        "preference": "{\"baseLayer\":\"ne\",\"proj\":\"EPSG:4326\",\"viewport\":{\"center\":[-6.944973468780518,35.65285593271258],\"zoom\":4},\"layers\":[{\"id\":\"EO:EUM:DAT:0198\",\"name\":\"Orbital Ground Tracks - Metop A\",\"state\":{\"visible\":true,\"opacity\":1,\"style\":\"rdt_red\"}}],\"drivingLayer\":\"EO:EUM:DAT:0198\",\"overlays\":{\"coastline\":true,\"borders\":true,\"labels_dark\":false,\"labels_light\":false,\"graticules_dark\":false,\"graticules_light\":false},\"time\":{\"mode\":\"absolute\",\"value\":\"2025-03-12T17:00:00.000Z\"}}",
        "type": "mapView",
        "shared": false,
        "creationTime": "2025-02-12T15:32:41.539193",
        "lastUpdate": "2025-03-20T15:32:41.539193",
        "disabled": true,
        "_links": {
          "self": {
            "href": "https://internal.store.cgi-dev.de/userPreferences/preferences/917"
          },
          "userPreference": {
            "href": "https://internal.store.cgi-dev.de/userPreferences/preferences/917"
          }
        }
      }]
  },
  "page": {
    "size": 20,
    "totalElements": 22,
    "totalPages": 2,
    "number": 0
  }
}