{
  "_embedded": {
    "preferences": [
      {
        "id": 920,
        "ownerId": "licensed_user_e",
        "name": "default5",
        "preference": "{\"baseLayer\":\"ne\",\"proj\":\"EPSG:4326\",\"viewport\":{\"center\":[-6.944973468780518,35.65285593271258],\"zoom\":4},\"layers\":[{\"id\":\"EO:EUM:DAT:0198\",\"name\":\"Orbital Ground Tracks - Metop A\",\"state\":{\"visible\":true,\"opacity\":1,\"style\":\"rdt_red\"}}],\"drivingLayer\":\"EO:EUM:DAT:0198\",\"overlays\":{\"coastline\":true,\"borders\":true,\"labels_dark\":false,\"labels_light\":false,\"graticules_dark\":false,\"graticules_light\":false},\"time\":{\"mode\":\"absolute\",\"value\":\"2025-03-12T17:00:00.000Z\"}}",
        "type": "mapView",
        "shared": false,
        "creationTime": "2025-02-12T15:32:41.539193",
        "lastUpdate": "2025-03-20T15:32:41.539193",
        "disabled": false,
        "_links": {
          "self": {
            "href": "https://internal.store.cgi-dev.de/userPreferences/preferences/920"
          },
          "userPreference": {
            "href": "https://internal.store.cgi-dev.de/userPreferences/preferences/920"
          }
        }
      },
      {
        "id": 921,
        "ownerId": "licensed_user_e",
        "name": "default1",
        "preference": "{\"baseLayer\":\"ne\",\"proj\":\"EPSG:4326\",\"viewport\":{\"center\":[-6.944973468780518,35.65285593271258],\"zoom\":4},\"layers\":[{\"id\":\"EO:EUM:DAT:0023\",\"name\":\"Rapidly Developing Thunderstorms - MSG - 0 degree\",\"state\":{\"visible\":true,\"opacity\":1,\"style\":\"rdt_red\"}}],\"drivingLayer\":\"EO:EUM:DAT:0023\",\"overlays\":{\"coastline\":true,\"borders\":true,\"labels_dark\":false,\"labels_light\":false,\"graticules_dark\":false,\"graticules_light\":false},\"time\":{\"mode\":\"absolute\",\"value\":\"2025-03-12T17:45:00.000Z\"}}",
        "type": "mapView",
        "shared": false,
        "creationTime": "2025-02-12T15:30:41.539193",
        "lastUpdate": "2025-03-20T15:30:41.539193",
        "disabled": false,
        "_links": {
          "self": {
            "href": "https://internal.store.cgi-dev.de/userPreferences/preferences/921"
          },
          "userPreference": {
            "href": "https://internal.store.cgi-dev.de/userPreferences/preferences/921"
          }
        }
      }
    ]
  },
  "_links": {
    "first": {
      "href": "http://localhost:8080/userPreferences/preferences/search/findByType?type=mapView&page=0&size=4"
    },
    "prev": {
      "href": "http://localhost:8080/userPreferences/preferences/search/findByType?type=mapView&page=0&size=4"
    },
    "self": {
      "href": "http://localhost:8080/userPreferences/preferences/search/findByType?type=mapView&page=1&size=4"
    },
    "last": {
      "href": "http://localhost:8080/userPreferences/preferences/search/findByType?type=mapView&page=1&size=4"
    }
  },
  "page": {
    "size": 4,
    "totalElements": 6,
    "totalPages": 2,
    "number": 1
  }
}